csv/lab1/input_scope_100.csv

#Digilent WaveForms Oscilloscope Acquisition
#Device Name: Discovery2
#Serial Number: SN:210321B3D271
#Date Time: 2025-02-10 13:04:13.186
#Sample rate: 80000Hz
#Samples: 8192
#Trigger: Source: Channel 1 Type: Edge Condition: Rising Level: 0 V Hyst.: Auto HoldOff: 0 s
#Channel 1: Range: 500 mV/div Offset: 0 V Attenuation: 1 X Sample Mode: Average
#Wavegen Channel 1: Running
#Mode: Simple
#Type: Sine
#Frequency: 100 Hz
#Period: 10 ms
#Amplitude: 1 V
#Offset: 1 V
#Symmetry: 50 %
#Phase: 0 °

Time (s),Channel 1 (V)
-0.0512,0.6885345068400625
-0.0511875,0.6959832716120095
-0.051175,0.7041091968177622
-0.0511625,0.7108808011558926
-0.05115,0.7183295659278359
-0.0511375,0.7261169109166858
-0.051125,0.733904255905539
-0.0511125,0.7410144404605726
-0.0511,0.7488017854494226
-0.0510875,0.7565891304382725
-0.051075,0.7640378952102158
-0.0510625,0.7714866599821629
-0.05105,0.7796125851879157
-0.0510375,0.7873999301767656
-0.051025,0.7945101147318024
-0.0510125,0.8026360399375588
-0.051,0.8104233849264122
-0.0509875,0.8178721496983522
-0.050975,0.825659494687202
-0.0509625,0.8331082594591455
-0.05095,0.8412341846649019
-0.0509375,0.8486829494368489
-0.050925,0.8564702944256951
-0.0509125,0.864257639414545
-0.0509,0.872044984403395
-0.0508875,0.8805094898260579
-0.050875,0.8879582545980048
-0.0508625,0.8957455995868512
-0.05085,0.9035329445757011
-0.0508375,0.911320289564551
-0.050825,0.919784794987214
-0.0508125,0.9268949795422544
-0.0508,0.9346823245311008
-0.0507875,0.9424696695199506
-0.050775,0.9509341749426136
-0.0507625,0.9580443594976504
-0.05075,0.9661702847034033
-0.0507375,0.9739576296922567
-0.050725,0.9820835548980132
-0.0507125,0.9895323196699566
-0.0507,0.9979968250926196
-0.0506875,1.006122750298372
-0.050675,1.013232934853413
-0.0506625,1.021020279842263
-0.05065,1.029146205048019
-0.0506375,1.037272130253776
-0.050625,1.044720895025716
-0.0506125,1.052508240014569
-0.0506,1.060295585003419
-0.0505875,1.068421510209175
-0.050575,1.076208855198025
-0.0505625,1.083657619969965
-0.05055,1.092460705609538
-0.0505375,1.099232309947668
-0.050525,1.107358235153425
-0.0505125,1.115484160359181
-0.0505,1.123271505348028
-0.0504875,1.130720270119975
-0.050475,1.138507615108824
-0.0504625,1.146633540314581
-0.05045,1.154082305086524
-0.0504375,1.16186965007537
-0.050425,1.16999557528113
-0.0504125,1.17778292026998
-0.0504,1.185231685041924
-0.0503875,1.192680449813867
-0.050375,1.201144955236526
-0.0503625,1.208255139791567
-0.05035,1.216042484780417
-0.0503375,1.224168409986173
-0.050325,1.231955754975023
-0.0503125,1.239065939530057
-0.0503,1.24685328451891
-0.0502875,1.254302049290853
-0.050275,1.262089394279703
-0.0502625,1.269538159051647
-0.05025,1.277325504040493
-0.0502375,1.284435688595533
-0.050225,1.29256161380129
-0.0502125,1.299671798356327
-0.0502,1.30712056312827
-0.0501875,1.31456932790021
-0.050175,1.322356672889063
-0.0501625,1.329805437661007
-0.05015,1.337592782649857
-0.0501375,1.344702967204894
-0.050125,1.351813151759927
-0.0501125,1.359261916531874
-0.0501,1.366710681303817
-0.0500875,1.373820865858854
-0.050075,1.381269630630797
-0.0500625,1.388718395402741
-0.05005,1.395489999740871
-0.0500375,1.402938764512815
-0.050025,1.410387529284758
-0.0500125,1.417497713839795
-0.05,1.424607898394832
-0.0499875,1.431718082949869
-0.049975,1.438828267504906
-0.0499625,1.446277032276849
-0.04995,1.452710056398073
-0.0499375,1.459481660736203
-0.049925,1.466930425508147
-0.0499125,1.473702029846277
-0.0499,1.480473634184407
-0.0498875,1.487583818739444
-0.049875,1.494355423077574
-0.0498625,1.500788447198802
-0.04985,1.508237211970742
-0.0498375,1.515008816308872
-0.049825,1.522119000863909
-0.0498125,1.528213444768226
-0.0498,1.53498504910636
-0.0497875,1.542095233661393
-0.049775,1.548189677565711
-0.0497625,1.554961281903841
-0.04975,1.561394306025065
-0.0497375,1.568165910363198
-0.049725,1.574260354267513
-0.0497125,1.580693378388736
-0.0497,1.587464982726867
-0.0496875,1.593559426631184
-0.049675,1.599992450752411
-0.0496625,1.606425474873632
-0.04965,1.612858498994856
-0.0496375,1.618952942899173
-0.049625,1.62504738680349
-0.0496125,1.63114183070781
-0.0496,1.636897694395218
-0.0495875,1.643330718516442
-0.049575,1.649425162420759
-0.0495625,1.65518102610817
-0.04955,1.660936889795584
-0.0495375,1.667031333699898
-0.049525,1.672787197387309
-0.0495125,1.678881641291627
-0.0495,1.684637504979037
-0.0494875,1.690393368666451
-0.049475,1.695810652136952
-0.0494625,1.701566515824363
-0.04945,1.706983799294868
-0.0494375,1.712739662982278
-0.049425,1.718495526669692
-0.0494125,1.723912810140193
-0.0494,1.728991513393791
-0.0493875,1.735085957298109
-0.049375,1.7398260803348
-0.0493625,1.745243363805306
-0.04935,1.750660647275808
-0.0493375,1.755739350529406
-0.049325,1.760818053783004
-0.0493125,1.765896757036602
-0.0493,1.771314040507108
-0.0492875,1.776392743760704
-0.049275,1.781471447014301
-0.0492625,1.786211570050993
-0.04925,1.79129027330459
-0.0492375,1.795353235907471
-0.049225,1.80009335894416
-0.0492125,1.805172062197758
-0.0492,1.810589345668262
-0.0491875,1.81465230827114
-0.049175,1.819053851090923
-0.0491625,1.823793974127616
-0.04915,1.828195516947401
-0.0491375,1.832258479550279
-0.049125,1.837337182803877
-0.0491125,1.841061565189847
-0.0491,1.845463108009633
-0.0490875,1.849864650829418
-0.049075,1.854266193649203
-0.0490625,1.857990576035174
-0.04905,1.862053538638051
-0.0490375,1.865777921024024
-0.049025,1.870518044060715
-0.0490125,1.873903846229781
-0.049,1.877628228615752
-0.0489875,1.882029771435535
-0.048975,1.885754153821509
-0.0489625,1.888801375773667
-0.04895,1.892864338376546
-0.0489375,1.896250140545611
-0.048925,1.899974522931581
-0.0489125,1.903021744883741
-0.0489,1.90708470748662
-0.0488875,1.910131929438778
-0.048875,1.91385631182475
-0.0488625,1.916564953560001
-0.04885,1.919950755729067
-0.0488375,1.922659397464319
-0.048825,1.925706619416478
-0.0488125,1.928753841368636
-0.0488,1.9321396435377
-0.0487875,1.934848285272954
-0.048775,1.937556927008206
-0.0487625,1.940604148960365
-0.04875,1.943312790695617
-0.0487375,1.945682852213961
-0.048725,1.948391493949215
-0.0487125,1.951100135684467
-0.0487,1.953808777419719
-0.0486875,1.955840258721158
-0.048675,1.958548900456409
-0.0486625,1.960580381757849
-0.04865,1.962273282842382
-0.0486375,1.964981924577634
-0.048625,1.96735198609598
-0.0486125,1.969383467397418
-0.0486,1.971076368481951
-0.0485875,1.97310784978339
-0.048575,1.97513933108483
-0.0485625,1.977170812386269
-0.04855,1.9788637134708
-0.0485375,1.980556614555334
-0.048525,1.98191093542296
-0.0485125,1.983942416724399
-0.0485,1.984958157375118
-0.0484875,1.986989638676558
-0.048475,1.988343959544184
-0.0484625,1.98969828041181
-0.04845,1.991052601279436
-0.0484375,1.992068341930155
-0.048425,1.993084082580875
-0.0484125,1.994099823231595
-0.0484,1.995115563882314
-0.0483875,1.995792724316127
-0.048375,1.996808464966846
-0.0483625,1.998162785834473
-0.04835,1.998839946268286
-0.0483375,1.999517106702099
-0.048325,2.000194267135912
-0.0483125,2.000871427569725
-0.0483,2.001548588003538
-0.0482875,2.001887168220444
-0.048275,2.002225748437351
-0.0482625,2.002902908871164
-0.04825,2.002564328654258
-0.0482375,2.002902908871164
-0.048225,2.003580069304977
-0.0482125,2.003918649521883
-0.0482,2.003580069304977
-0.0481875,2.003580069304977
-0.048175,2.003580069304977
-0.0481625,2.003241489088071
-0.04815,2.003241489088071
-0.0481375,2.003241489088071
-0.048125,2.002902908871164
-0.0481125,2.001887168220444
-0.0481,2.001887168220444
-0.0480875,2.001210007786631
-0.048075,2.000532847352818
-0.0480625,2.000194267135912
-0.04805,1.999178526485192
-0.0480375,1.998839946268286
-0.048025,1.998162785834473
-0.0480125,1.997147045183753
-0.048,1.996131304533034
-0.0479875,1.995115563882314
-0.047975,1.994099823231594
-0.0479625,1.993084082580875
-0.04795,1.991729761713249
-0.0479375,1.990714021062529
-0.047925,1.989359700194903
-0.0479125,1.988005379327277
-0.0479,1.986651058459651
-0.0478875,1.984958157375118
-0.047875,1.983603836507492
-0.0478625,1.981572355206053
-0.04785,1.980556614555333
-0.0478375,1.978525133253895
-0.047825,1.976832232169362
-0.0478125,1.974462170651016
-0.0478,1.97310784978339
-0.0477875,1.97107636848195
-0.047775,1.969044887180512
-0.0477625,1.966674825662166
-0.04775,1.964304764143821
-0.0477375,1.962611863059288
-0.047725,1.960241801540942
-0.0477125,1.957871740022597
-0.0477,1.955501678504251
-0.0476875,1.953131616985906
-0.047675,1.95076155546756
-0.0476625,1.948052913732307
-0.04765,1.945005691780149
-0.0476375,1.942635630261804
-0.047625,1.939588408309645
-0.0476125,1.9372183467913
-0.0476,1.934509705056049
-0.0475875,1.931123902886982
-0.047575,1.92841526115173
-0.0475625,1.925368039199571
-0.04755,1.922320817247413
-0.0475375,1.918935015078349
-0.047525,1.915887793126189
-0.0475125,1.912501990957124
-0.0475,1.909793349221871
-0.0474875,1.9060689668359
-0.047475,1.902683164666836
-0.0474625,1.89929736249777
-0.04745,1.895911560328704
-0.0474375,1.891848597725826
-0.047425,1.888124215339855
-0.0474125,1.884738413170791
-0.0474,1.880675450567911
-0.0473875,1.876951068181939
-0.047375,1.873226685795968
-0.0473625,1.869502303409996
-0.04735,1.865777921024026
-0.0473375,1.861037797987333
-0.047325,1.857313415601361
-0.0473125,1.853250452998483
-0.0473,1.849187490395605
-0.0472875,1.844785947575822
-0.047275,1.840384404756035
-0.0472625,1.836660022370064
-0.04725,1.831919899333373
-0.0472375,1.827179776296681
-0.047225,1.823116813693805
-0.0472125,1.818376690657112
-0.0472,1.81363656762042
-0.0471875,1.809235024800636
-0.047175,1.804494901763945
-0.0471625,1.800093358944162
-0.04715,1.794676075473655
-0.0471375,1.789935952436964
-0.047125,1.78553440961718
-0.0471125,1.780455706363582
-0.0471,1.775377003109986
-0.0470875,1.770636880073293
-0.047075,1.765219596602789
-0.0470625,1.759802313132284
-0.04705,1.755062190095593
-0.0470375,1.749644906625091
-0.047025,1.744566203371491
-0.0470125,1.739148919900987
-0.047,1.733731636430482
-0.0469875,1.728652933176885
-0.046975,1.722897069489477
-0.0469625,1.717141205802063
-0.04695,1.712062502548465
-0.0469375,1.705968058644148
-0.046925,1.70088935539055
-0.0469125,1.695133491703139
-0.0469,1.689377628015729
-0.0468875,1.683621764328318
-0.046875,1.677865900640907
-0.0468625,1.672110036953496
-0.04685,1.665677012832272
-0.0468375,1.659921149144862
-0.046825,1.654165285457451
-0.0468125,1.64840942177004
-0.0468,1.642314977865723
-0.0467875,1.636220533961405
-0.046775,1.629448929623272
-0.0467625,1.623693065935864
-0.04675,1.617598622031547
-0.0467375,1.611504178127229
-0.046725,1.605071154006006
-0.0467125,1.598976710101685
-0.0467,1.592205105763558
-0.0466875,1.586110661859241
-0.046675,1.579677637738017
-0.0466625,1.572906033399887
-0.04665,1.566811589495566
-0.0466375,1.560378565374345
-0.046625,1.553945541253122
-0.0466125,1.546835356698085
-0.0466,1.540402332576861
-0.0465875,1.533969308455634
-0.046575,1.527197704117507
-0.0465625,1.52008751956247
-0.04655,1.513315915224339
-0.0465375,1.506882891103116
-0.046525,1.499772706548075
-0.0465125,1.492662521993042
-0.0465,1.486568078088724
-0.0464875,1.479457893533688
-0.046475,1.472347708978651
-0.0464625,1.465576104640517
-0.04645,1.458465920085483
-0.0464375,1.451355735530447
-0.046425,1.444584131192316
-0.0464125,1.437812526854186
-0.0464,1.430363762082239
-0.0463875,1.422914997310299
-0.046375,1.415804812755262
-0.0463625,1.408694628200226
-0.04635,1.401584443645189
-0.0463375,1.393797098656335
-0.046325,1.387025494318208
-0.0463125,1.380253889980078
-0.0463,1.372805125208135
-0.0462875,1.365017780219285
-0.046275,1.358246175881151
-0.0462625,1.350797411109211
-0.04625,1.343348646337267
-0.0462375,1.335561301348418
-0.046225,1.328451116793381
-0.0462125,1.320663771804527
-0.0462,1.312876426815681
-0.0461875,1.306443402694457
-0.046175,1.298656057705607
-0.0461625,1.291207292933664
-0.04615,1.283081367727904
-0.0461375,1.275632602955964
-0.046125,1.268522418400927
-0.0461125,1.260735073412077
-0.0461,1.252947728423227
-0.0460875,1.245837543868194
-0.046075,1.237711618662434
-0.0460625,1.230262853890491
-0.04605,1.222814089118547
-0.0460375,1.214349583695884
-0.046025,1.207239399140851
-0.0460125,1.199452054151998
-0.046,1.192003289380054
-0.0459875,1.183877364174298
-0.045975,1.175751438968541
-0.0459625,1.168641254413508
-0.04595,1.160853909424655
-0.0459375,1.152389404001992
-0.045925,1.145279219446955
-0.0459125,1.137491874458105
-0.0459,1.129704529469258
-0.0458875,1.121917184480405
-0.045875,1.114129839491555
-0.0458625,1.106003914285799
-0.04585,1.097877989080042
-0.0458375,1.090429224308102
-0.045825,1.082303299102342
-0.0458125,1.074854534330399
-0.0458,1.066728609124643
-0.0457875,1.059279844352699
-0.045775,1.051153919146947
-0.0457625,1.043366574158093
-0.04575,1.035240648952336
-0.0457375,1.0281304643973
-0.045725,1.020004539191543
-0.0457125,1.011540033768884
-0.0457,1.004091268996937
-0.0456875,0.996303924008087
-0.045675,0.9881779988023305
-0.0456625,0.9803906538134807
-0.04565,0.9729418890415407
-0.0456375,0.9648159638357808
-0.045625,0.9566900386300243
-0.0456125,0.9489026936411745
-0.0456,0.9411153486523246
-0.0455875,0.9333280036634782
-0.045575,0.9255406586746248
-0.0455625,0.9177533136857748
-0.04555,0.9103045489138315
-0.0455375,0.9018400434911685
-0.045525,0.8943912787192286
-0.0455125,0.8862653535134687
-0.0455,0.8784780085246188
-0.0454875,0.8706906635357688
-0.045475,0.862903318546919
-0.0454625,0.8551159735580727
-0.04545,0.8473286285692192
-0.0454375,0.8395412835803693
-0.045425,0.8324310990253324
-0.0454125,0.8239665936026694
-0.0454,0.8165178288307295
-0.0453875,0.8083919036249696
-0.045375,0.8012817190699327
-0.0453625,0.7931557938641763
-0.04535,0.7853684488753264
-0.0453375,0.7779196841033831
-0.045325,0.7701323391145332
-0.0453125,0.7623449941256832
-0.0453,0.7548962293537399
-0.0452875,0.7474474645817965
-0.045275,0.7396601195929465
-0.0452625,0.7318727746040966
-0.04525,0.7247625900490597
-0.0452375,0.7169752450602099
-0.045225,0.70918790007136
-0.0452125,0.7020777155163231
-0.0452,0.6949675309612826
-0.0451875,0.6868416057555298
-0.045175,0.67905426076668
-0.0451625,0.6716054959947365
-0.04515,0.6644953114396996
-0.0451375,0.6573851268846592
-0.045125,0.6495977818958129
-0.0451125,0.6428261775576826
-0.0451,0.6350388325688326
-0.0450875,0.6279286480137958
-0.045075,0.6204798832418492
-0.0450625,0.613708278903722
-0.04505,0.6059209339148721
-0.0450375,0.5988107493598352
-0.045025,0.5913619845878918
-0.0450125,0.5845903802497581
-0.045,0.5771416154778181
-0.0449875,0.5696928507058747
-0.044975,0.5629212463677443
-0.0449625,0.556149642029614
-0.04495,0.5487008772576675
-0.0449375,0.5419292729195403
-0.044925,0.5348190883645034
-0.0449125,0.528047484026373
-0.0449,0.5205987192544297
-0.0448875,0.5141656951332026
-0.044875,0.507055510578169
-0.0448625,0.5002839062400386
-0.04485,0.4938508821188147
-0.0448375,0.4874178579975909
-0.044825,0.4799690932256444
-0.0448125,0.4731974888875171
-0.0448,0.4664258845493868
-0.0447875,0.459992860428163
-0.044775,0.4532212560900326
-0.0447625,0.4471268121857122
-0.04475,0.4403552078475849
-0.0447375,0.4339221837263611
-0.044725,0.4268119991713242
-0.0447125,0.4210561354839134
-0.0447,0.4146231113626866
-0.0446875,0.4081900872414657
-0.044675,0.4020956433371484
-0.0446625,0.3960011994328311
-0.04465,0.3888910148777942
-0.0446375,0.3831351511903805
-0.044625,0.3767021270691596
-0.0446125,0.3706076831648423
-0.0446,0.364513239260525
-0.0445875,0.3584187953562076
-0.044575,0.3523243514518877
-0.0445625,0.3465684877644795
-0.04455,0.3408126240770687
-0.0445375,0.3343795999558449
-0.044525,0.3286237362684341
-0.0445125,0.3232064527979323
-0.0445,0.3171120088936125
-0.0444875,0.3116947254231082
-0.044475,0.3056002815187909
-0.0444625,0.2998444178313801
-0.04445,0.2940885541439719
-0.0444375,0.288671270673465
-0.044425,0.2832539872029607
-0.0444125,0.2778367037324564
-0.0444,0.2724194202619521
-0.0443875,0.2673407170083567
-0.044375,0.2612462731040371
-0.0443625,0.2561675698504393
-0.04435,0.2510888665968415
-0.0443375,0.2460101633432438
-0.044325,0.2409314600896483
-0.0443125,0.2355141766191417
-0.0443,0.2307740535824505
-0.0442875,0.2253567701119462
-0.044275,0.220616647075255
-0.0442625,0.2158765240385659
-0.04425,0.2104592405680594
-0.0442375,0.2060576977482747
-0.044225,0.2006404142777704
-0.0442125,0.1965774516748922
-0.0442,0.1918373286382031
-0.0441875,0.1867586253846032
-0.044175,0.1823570825648185
-0.0441625,0.1776169595281272
-0.04415,0.173553996925249
-0.0441375,0.1684752936716535
-0.044125,0.1640737508518665
-0.0441125,0.1603493684658948
-0.0441,0.1562864058630166
-0.0440875,0.1515462828263253
-0.044075,0.1478219004403554
-0.0440625,0.1430817774036624
-0.04405,0.1390188148007842
-0.0440375,0.135633012631719
-0.044025,0.1312314698119343
-0.0440125,0.1275070874259643
-0.044,0.1231055446061779
-0.0439875,0.1197197424371127
-0.043975,0.115995360051141
-0.0439625,0.1126095578820758
-0.04395,0.1088851754961058
-0.0439375,0.105499373327039
-0.043925,0.1021135711579738
-0.0439125,0.09838918877200209
-0.0439,0.09500338660293692
-0.0438875,0.09161758443387329
-0.043875,0.08789320204790005
-0.0438625,0.08450739987883488
-0.04385,0.08213733836048925
-0.0438375,0.07875153619142408
-0.043825,0.07502715380545238
-0.0438125,0.07299567250401326
-0.0438,0.06994845055185461
-0.0437875,0.06656264838278944
-0.043775,0.06419258686444382
-0.0437625,0.06114536491228515
-0.04375,0.05809814296012649
-0.0437375,0.05538950122487435
-0.043725,0.05335801992343524
-0.0437125,0.0506493781881831
-0.0437,0.04794073645293096
-0.0436875,0.04523209471767882
-0.043675,0.0428620331993332
-0.0436625,0.04049197168098757
-0.04365,0.03846049037954847
-0.0436375,0.03609042886120285
-0.043625,0.03439752777666918
-0.0436125,0.03202746625832464
-0.0436,0.02999598495688553
-0.0435875,0.02830308387235294
-0.043575,0.02661018278782035
-0.0435625,0.02424012126947411
-0.04355,0.02288580040184866
-0.0435375,0.02119289931731607
-0.043525,0.01949999823278348
-0.0435125,0.01780709714825089
-0.0435,0.01611419606371754
-0.0434875,0.01442129497918572
-0.043475,0.01340555432846616
-0.0434625,0.01205123346084009
-0.04345,0.01069691259321402
-0.0434375,0.009342591725587181
-0.043425,0.007649690641055363
-0.0434125,0.006972530207242328
-0.0434,0.005956789556522775
-0.0433875,0.004941048905803221
-0.043375,0.004602468688896088
-0.0433625,0.003248147821270633
-0.04335,0.002570987387457598
-0.0433375,0.001555246736738045
-0.043325,0.0008780863029250098
-0.0433125,0.0008780863029245479
-0.0433,-0.0001376543477945432
-0.0432875,-0.0004762345647010608
-0.043275,-0.001153394998514096
-0.0432625,-0.001491975215420614
-0.04325,-0.001830555432327285
-0.0432375,-0.002169135649233649
-0.043225,-0.002169135649233649
-0.0432125,-0.002169135649233649
-0.0432,-0.002169135649233649
-0.0431875,-0.002169135649233649
-0.043175,-0.002169135649233649
-0.0431625,-0.002169135649233649
-0.04315,-0.002507715866140167
-0.0431375,-0.001830555432327131
-0.043125,-0.001491975215420306
-0.0431125,-0.0008148147816075784
-0.0431,-0.0004762345647010608
-0.0430875,0.0002009258691119745
-0.043075,0.0005395060860184922
-0.0430625,0.0008780863029254716
-0.04305,0.001893826953644563
-0.0430375,0.002570987387457598
-0.043025,0.003248147821270633
-0.0430125,0.004263888471990186
-0.043,0.005279629122710355
-0.0429875,0.00663394999033581
-0.042975,0.007311110424148845
-0.0429625,0.008326851074868398
-0.04295,0.009681171942494468
-0.0429375,0.01103549281011992
-0.042925,0.01238981367774661
-0.0429125,0.01340555432846616
-0.0429,0.01475987519609223
-0.0428875,0.01645277628062482
-0.042875,0.01814567736515664
-0.0428625,0.01983857844969
-0.04285,0.02119289931731607
-0.0428375,0.02288580040184866
-0.042825,0.02491728170328776
-0.0428125,0.02627160257091322
-0.0428,0.02830308387235294
-0.0427875,0.03067314539069856
-0.042775,0.03270462669213767
-0.0427625,0.03439752777667026
-0.04275,0.03710616951192117
-0.0427375,0.03913765081336151
-0.042725,0.04083055189789409
